^C:\USERS\CEBEP9HUH\SOURCE\REPOS\HOMEWORK_16\HOMEWORK_16.CPP
Z:\PROGRAMS\VISUALSTUDIO\VC\TOOLS\MSVC\14.24.28314\BIN\HOSTX86\X86\1049\CLUI.DLL
C:\WINDOWS\GLOBALIZATION\SORTING\SORTDEFAULT.NLS
C:\WINDOWS\SYSTEM32\TZRES.DLL
Z:\PROGRAMS\VISUALSTUDIO\VC\TOOLS\MSVC\14.24.28314\INCLUDE\IOSTREAM
Z:\PROGRAMS\VISUALSTUDIO\VC\TOOLS\MSVC\14.24.28314\INCLUDE\YVALS_CORE.H
Z:\PROGRAMS\VISUALSTUDIO\VC\TOOLS\MSVC\14.24.28314\INCLUDE\VCRUNTIME.H
Z:\PROGRAMS\VISUALSTUDIO\VC\TOOLS\MSVC\14.24.28314\INCLUDE\SAL.H
Z:\PROGRAMS\VISUALSTUDIO\VC\TOOLS\MSVC\14.24.28314\INCLUDE\CONCURRENCYSAL.H
Z:\PROGRAMS\VISUALSTUDIO\VC\TOOLS\MSVC\14.24.28314\INCLUDE\VADEFS.H
Z:\PROGRAMS\VISUALSTUDIO\VC\TOOLS\MSVC\14.24.28314\INCLUDE\XKEYCHECK.H
Z:\PROGRAMS\VISUALSTUDIO\VC\TOOLS\MSVC\14.24.28314\INCLUDE\ISTREAM
Z:\PROGRAMS\VISUALSTUDIO\VC\TOOLS\MSVC\14.24.28314\INCLUDE\OSTREAM
Z:\PROGRAMS\VISUALSTUDIO\VC\TOOLS\MSVC\14.24.28314\INCLUDE\IOS
Z:\PROGRAMS\VISUALSTUDIO\VC\TOOLS\MSVC\14.24.28314\INCLUDE\XLOCNUM
Z:\PROGRAMS\VISUALSTUDIO\VC\TOOLS\MSVC\14.24.28314\INCLUDE\CLIMITS
Z:\PROGRAMS\VISUALSTUDIO\VC\TOOLS\MSVC\14.24.28314\INCLUDE\LIMITS.H
Z:\PROGRAMS\VISUALSTUDIO\VC\TOOLS\MSVC\14.24.28314\INCLUDE\CMATH
Z:\PROGRAMS\VISUALSTUDIO\VC\TOOLS\MSVC\14.24.28314\INCLUDE\YVALS.H
C:\PROGRAM FILES (X86)\WINDOWS KITS\10\INCLUDE\10.0.17763.0\UCRT\CRTDBG.H
C:\PROGRAM FILES (X86)\WINDOWS KITS\10\INCLUDE\10.0.17763.0\UCRT\CORECRT.H
Z:\PROGRAMS\VISUALSTUDIO\VC\TOOLS\MSVC\14.24.28314\INCLUDE\VCRUNTIME_NEW_DEBUG.H
Z:\PROGRAMS\VISUALSTUDIO\VC\TOOLS\MSVC\14.24.28314\INCLUDE\VCRUNTIME_NEW.H
Z:\PROGRAMS\VISUALSTUDIO\VC\TOOLS\MSVC\14.24.28314\INCLUDE\CRTDEFS.H
Z:\PROGRAMS\VISUALSTUDIO\VC\TOOLS\MSVC\14.24.28314\INCLUDE\USE_ANSI.H
Z:\PROGRAMS\VISUALSTUDIO\VC\TOOLS\MSVC\14.24.28314\INCLUDE\CSTDLIB
C:\PROGRAM FILES (X86)\WINDOWS KITS\10\INCLUDE\10.0.17763.0\UCRT\MATH.H
C:\PROGRAM FILES (X86)\WINDOWS KITS\10\INCLUDE\10.0.17763.0\UCRT\CORECRT_MATH.H
C:\PROGRAM FILES (X86)\WINDOWS KITS\10\INCLUDE\10.0.17763.0\UCRT\STDLIB.H
C:\PROGRAM FILES (X86)\WINDOWS KITS\10\INCLUDE\10.0.17763.0\UCRT\CORECRT_MALLOC.H
C:\PROGRAM FILES (X86)\WINDOWS KITS\10\INCLUDE\10.0.17763.0\UCRT\CORECRT_SEARCH.H
C:\PROGRAM FILES (X86)\WINDOWS KITS\10\INCLUDE\10.0.17763.0\UCRT\STDDEF.H
C:\PROGRAM FILES (X86)\WINDOWS KITS\10\INCLUDE\10.0.17763.0\UCRT\CORECRT_WSTDLIB.H
Z:\PROGRAMS\VISUALSTUDIO\VC\TOOLS\MSVC\14.24.28314\INCLUDE\XTGMATH.H
Z:\PROGRAMS\VISUALSTUDIO\VC\TOOLS\MSVC\14.24.28314\INCLUDE\XTR1COMMON
Z:\PROGRAMS\VISUALSTUDIO\VC\TOOLS\MSVC\14.24.28314\INCLUDE\CSTDIO
C:\PROGRAM FILES (X86)\WINDOWS KITS\10\INCLUDE\10.0.17763.0\UCRT\STDIO.H
C:\PROGRAM FILES (X86)\WINDOWS KITS\10\INCLUDE\10.0.17763.0\UCRT\CORECRT_WSTDIO.H
C:\PROGRAM FILES (X86)\WINDOWS KITS\10\INCLUDE\10.0.17763.0\UCRT\CORECRT_STDIO_CONFIG.H
Z:\PROGRAMS\VISUALSTUDIO\VC\TOOLS\MSVC\14.24.28314\INCLUDE\STREAMBUF
Z:\PROGRAMS\VISUALSTUDIO\VC\TOOLS\MSVC\14.24.28314\INCLUDE\XIOSBASE
C:\PROGRAM FILES (X86)\WINDOWS KITS\10\INCLUDE\10.0.17763.0\UCRT\SHARE.H
C:\PROGRAM FILES (X86)\WINDOWS KITS\10\INCLUDE\10.0.17763.0\UCRT\CORECRT_SHARE.H
Z:\PROGRAMS\VISUALSTUDIO\VC\TOOLS\MSVC\14.24.28314\INCLUDE\SYSTEM_ERROR
Z:\PROGRAMS\VISUALSTUDIO\VC\TOOLS\MSVC\14.24.28314\INCLUDE\CERRNO
C:\PROGRAM FILES (X86)\WINDOWS KITS\10\INCLUDE\10.0.17763.0\UCRT\ERRNO.H
Z:\PROGRAMS\VISUALSTUDIO\VC\TOOLS\MSVC\14.24.28314\INCLUDE\STDEXCEPT
Z:\PROGRAMS\VISUALSTUDIO\VC\TOOLS\MSVC\14.24.28314\INCLUDE\EXCEPTION
Z:\PROGRAMS\VISUALSTUDIO\VC\TOOLS\MSVC\14.24.28314\INCLUDE\TYPE_TRAITS
Z:\PROGRAMS\VISUALSTUDIO\VC\TOOLS\MSVC\14.24.28314\INCLUDE\XSTDDEF
Z:\PROGRAMS\VISUALSTUDIO\VC\TOOLS\MSVC\14.24.28314\INCLUDE\CSTDDEF
Z:\PROGRAMS\VISUALSTUDIO\VC\TOOLS\MSVC\14.24.28314\INCLUDE\INITIALIZER_LIST
C:\PROGRAM FILES (X86)\WINDOWS KITS\10\INCLUDE\10.0.17763.0\UCRT\MALLOC.H
Z:\PROGRAMS\VISUALSTUDIO\VC\TOOLS\MSVC\14.24.28314\INCLUDE\VCRUNTIME_EXCEPTION.H
Z:\PROGRAMS\VISUALSTUDIO\VC\TOOLS\MSVC\14.24.28314\INCLUDE\EH.H
C:\PROGRAM FILES (X86)\WINDOWS KITS\10\INCLUDE\10.0.17763.0\UCRT\CORECRT_TERMINATE.H
Z:\PROGRAMS\VISUALSTUDIO\VC\TOOLS\MSVC\14.24.28314\INCLUDE\XSTRING
Z:\PROGRAMS\VISUALSTUDIO\VC\TOOLS\MSVC\14.24.28314\INCLUDE\IOSFWD
Z:\PROGRAMS\VISUALSTUDIO\VC\TOOLS\MSVC\14.24.28314\INCLUDE\CSTRING
C:\PROGRAM FILES (X86)\WINDOWS KITS\10\INCLUDE\10.0.17763.0\UCRT\STRING.H
C:\PROGRAM FILES (X86)\WINDOWS KITS\10\INCLUDE\10.0.17763.0\UCRT\CORECRT_MEMORY.H
C:\PROGRAM FILES (X86)\WINDOWS KITS\10\INCLUDE\10.0.17763.0\UCRT\CORECRT_MEMCPY_S.H
Z:\PROGRAMS\VISUALSTUDIO\VC\TOOLS\MSVC\14.24.28314\INCLUDE\VCRUNTIME_STRING.H
C:\PROGRAM FILES (X86)\WINDOWS KITS\10\INCLUDE\10.0.17763.0\UCRT\CORECRT_WSTRING.H
Z:\PROGRAMS\VISUALSTUDIO\VC\TOOLS\MSVC\14.24.28314\INCLUDE\CWCHAR
C:\PROGRAM FILES (X86)\WINDOWS KITS\10\INCLUDE\10.0.17763.0\UCRT\WCHAR.H
C:\PROGRAM FILES (X86)\WINDOWS KITS\10\INCLUDE\10.0.17763.0\UCRT\CORECRT_WCONIO.H
C:\PROGRAM FILES (X86)\WINDOWS KITS\10\INCLUDE\10.0.17763.0\UCRT\CORECRT_WCTYPE.H
C:\PROGRAM FILES (X86)\WINDOWS KITS\10\INCLUDE\10.0.17763.0\UCRT\CORECRT_WDIRECT.H
C:\PROGRAM FILES (X86)\WINDOWS KITS\10\INCLUDE\10.0.17763.0\UCRT\CORECRT_WIO.H
C:\PROGRAM FILES (X86)\WINDOWS KITS\10\INCLUDE\10.0.17763.0\UCRT\CORECRT_WPROCESS.H
C:\PROGRAM FILES (X86)\WINDOWS KITS\10\INCLUDE\10.0.17763.0\UCRT\CORECRT_WTIME.H
C:\PROGRAM FILES (X86)\WINDOWS KITS\10\INCLUDE\10.0.17763.0\UCRT\SYS\STAT.H
C:\PROGRAM FILES (X86)\WINDOWS KITS\10\INCLUDE\10.0.17763.0\UCRT\SYS\TYPES.H
Z:\PROGRAMS\VISUALSTUDIO\VC\TOOLS\MSVC\14.24.28314\INCLUDE\XMEMORY
Z:\PROGRAMS\VISUALSTUDIO\VC\TOOLS\MSVC\14.24.28314\INCLUDE\CSTDINT
Z:\PROGRAMS\VISUALSTUDIO\VC\TOOLS\MSVC\14.24.28314\INCLUDE\STDINT.H
Z:\PROGRAMS\VISUALSTUDIO\VC\TOOLS\MSVC\14.24.28314\INCLUDE\LIMITS
Z:\PROGRAMS\VISUALSTUDIO\VC\TOOLS\MSVC\14.24.28314\INCLUDE\CFLOAT
C:\PROGRAM FILES (X86)\WINDOWS KITS\10\INCLUDE\10.0.17763.0\UCRT\FLOAT.H
Z:\PROGRAMS\VISUALSTUDIO\VC\TOOLS\MSVC\14.24.28314\INCLUDE\NEW
Z:\PROGRAMS\VISUALSTUDIO\VC\TOOLS\MSVC\14.24.28314\INCLUDE\XATOMIC.H
Z:\PROGRAMS\VISUALSTUDIO\VC\TOOLS\MSVC\14.24.28314\INCLUDE\INTRIN0.H
Z:\PROGRAMS\VISUALSTUDIO\VC\TOOLS\MSVC\14.24.28314\INCLUDE\XUTILITY
Z:\PROGRAMS\VISUALSTUDIO\VC\TOOLS\MSVC\14.24.28314\INCLUDE\UTILITY
Z:\PROGRAMS\VISUALSTUDIO\VC\TOOLS\MSVC\14.24.28314\INCLUDE\XCALL_ONCE.H
Z:\PROGRAMS\VISUALSTUDIO\VC\TOOLS\MSVC\14.24.28314\INCLUDE\XERRC.H
Z:\PROGRAMS\VISUALSTUDIO\VC\TOOLS\MSVC\14.24.28314\INCLUDE\XLOCALE
Z:\PROGRAMS\VISUALSTUDIO\VC\TOOLS\MSVC\14.24.28314\INCLUDE\MEMORY
Z:\PROGRAMS\VISUALSTUDIO\VC\TOOLS\MSVC\14.24.28314\INCLUDE\TYPEINFO
Z:\PROGRAMS\VISUALSTUDIO\VC\TOOLS\MSVC\14.24.28314\INCLUDE\VCRUNTIME_TYPEINFO.H
Z:\PROGRAMS\VISUALSTUDIO\VC\TOOLS\MSVC\14.24.28314\INCLUDE\XFACET
Z:\PROGRAMS\VISUALSTUDIO\VC\TOOLS\MSVC\14.24.28314\INCLUDE\XLOCINFO
Z:\PROGRAMS\VISUALSTUDIO\VC\TOOLS\MSVC\14.24.28314\INCLUDE\XLOCINFO.H
C:\PROGRAM FILES (X86)\WINDOWS KITS\10\INCLUDE\10.0.17763.0\UCRT\CTYPE.H
C:\PROGRAM FILES (X86)\WINDOWS KITS\10\INCLUDE\10.0.17763.0\UCRT\LOCALE.H
C:\PROGRAM FILES (X86)\WINDOWS KITS\10\INCLUDE\10.0.17763.0\UCRT\TIME.H
