^C:\USERS\CEBEP9HUH\SOURCE\REPOS\HOMEWORK_16\DEBUG\HOMEWORK_16.OBJ
C:\USERS\CEBEP9HUH\SOURCE\REPOS\HOMEWORK_16\DEBUG\HOMEWORK_16.EXE
C:\USERS\CEBEP9HUH\SOURCE\REPOS\HOMEWORK_16\DEBUG\HOMEWORK_16.ILK
C:\USERS\CEBEP9HUH\SOURCE\REPOS\HOMEWORK_16\DEBUG\HOMEWORK_16.PDB
